<?xml version="1.0" encoding="UTF-8" standalone="no"?>
<svg id="banner" enable-background="new 0 0 75 75" width="250" viewBox="0 0 234 94" height="100" xml:space="preserve" version="1.1" xmlns:dc="http://purl.org/dc/elements/1.1/" xmlns:cc="http://creativecommons.org/ns#" xmlns:rdf="http://www.w3.org/1999/02/22-rdf-syntax-ns#" xmlns:svg="http://www.w3.org/2000/svg" xmlns="http://www.w3.org/2000/svg" xmlns:xlink="http://www.w3.org/1999/xlink">
  <defs>
    <linearGradient id="linearGradient4770">
      <stop style="stop-color:#fffe00;stop-opacity:0;" offset="0" id="stop4768"></stop>
      <stop style="stop-color:#fffe00;stop-opacity:1;" offset="1" id="stop4766"></stop>
    </linearGradient>
    <linearGradient gradientUnits="userSpaceOnUse" y2="10.902542" x2="0.4406774" y1="74.779663" x1="0" id="linearGradient4156" xlink:href="#sky" gradientTransform="matrix(3.662128,0,0,1.4648513,4.8102287e-5,-51.555365)"></linearGradient>
    <linearGradient id="sky">
      <stop id="stop4166" offset="0" style="stop-color:#b0eef3;stop-opacity:1;"></stop>
      <stop id="stop4168" offset="1" style="stop-color:#aee6f3;stop-opacity:1"></stop>
    </linearGradient>
    <filter height="2.2168" y="-0.60839999" width="1.7605" x="-0.38025001" id="filter5840" style="color-interpolation-filters:sRGB">
      <feGaussianBlur id="feGaussianBlur5842" stdDeviation="10.306493"></feGaussianBlur>
    </filter>
    <filter height="1.3294614" y="-0.16473072" width="1.3804293" x="-0.19021465" id="filter5288" style="color-interpolation-filters:sRGB">
      <feGaussianBlur id="feGaussianBlur5290" stdDeviation="0.78018124"></feGaussianBlur>
    </filter>
    <linearGradient y2="-17.629517" x2="-105.00054" y1="-17.629517" x1="-114.84434" gradientUnits="userSpaceOnUse" id="linearGradient5571" xlink:href="#linearGradient4770"></linearGradient>
    <filter height="1.2051774" y="-0.10258868" width="1.0755167" x="-0.037758333" id="filter5986" style="color-interpolation-filters:sRGB">
      <feGaussianBlur id="feGaussianBlur5988" stdDeviation="4.531"></feGaussianBlur>
    </filter>
    <filter height="1.0806214" y="-0.04031068" width="1.0341728" x="-0.01708642" id="filter6204" style="color-interpolation-filters:sRGB">
      <feGaussianBlur id="feGaussianBlur6206" stdDeviation="1.73"></feGaussianBlur>
    </filter>
  </defs>
  <metadata>
    <rdf:rdf>
      <cc:work rdf:about="">
        <dc:format>image/svg+xml</dc:format>
        <dc:type rdf:resource="http://purl.org/dc/dcmitype/StillImage"></dc:type>
        <dc:title></dc:title>
      </cc:work>
    </rdf:rdf>
  </metadata>
  <g transform="translate(0,35.441799)" id="layer3">
    <path transform="matrix(0.93750483,0,0,0.93750483,197.37217,41.043125)" id="Rectangle 1 copy 2" d="m 49.261062,53.466567 c -9.97052,0 -18.078553,7.975116 -18.29158,17.894541 -3.648078,2.111402 -6.102488,6.058072 -6.102488,10.565205 0,6.736235 5.461836,12.197034 12.197035,12.197034 h 40.656775 c 6.736442,0 12.197034,-5.474504 12.197034,-12.197034 0,-5.620054 -3.801815,-10.354277 -8.973073,-11.768233 -1.881779,-5.002711 -6.711184,-8.560157 -12.371732,-8.560157 -1.302487,0 -2.559373,0.188851 -3.748047,0.539973 -3.225605,-5.204519 -8.990743,-8.671329 -15.563924,-8.671329 z" style="display:inline;fill:#87bfed;fill-opacity:1;fill-rule:evenodd;stroke:none;stroke-width:1;filter:url(#filter5840)"></path>
    <g id="layer7">
      <rect y="-35.442005" x="-6.2114378e-007" height="93.750473" width="234.37619" id="rect4148" style="display:inline;fill:url(#linearGradient4156);fill-opacity:1;stroke:none;stroke-width:0.23161331;stroke-miterlimit:4;stroke-dasharray:none;stroke-opacity:1"></rect>
    </g>
    <g id="layer5">
      <path id="path5992" transform="matrix(0.93750476,0,0,0.93750476,-7.9687905,-41.067134)" d="M 86.5,-15 A 30.5,11 0 0 0 56,-4 30.5,11 0 0 0 56.0039,-3.957031 21.500001,10 0 0 0 48.507812,-4.953125 18.5,6.5000001 0 0 0 30.5,-10 18.5,6.5000001 0 0 0 12,-3.5 18.5,6.5000001 0 0 0 25.568359,2.7578125 21.500001,10 0 0 0 25,5 21.500001,10 0 0 0 38.523438,14.277344 15.5,6.0000001 0 0 0 51.5,17 15.5,6.0000001 0 0 0 55.097656,16.828125 31.500001,6.5000001 0 0 0 84.5,21 31.500001,6.5000001 0 0 0 116,14.5 31.500001,6.5000001 0 0 0 115.86719,13.947266 16.5,4.5 0 0 0 129.92969,9.8847656 16.5,5 0 0 0 143,5 16.5,5 0 0 0 131.91211,0.28125 24.5,9.0000001 0 0 0 115.36328,-7.5136719 30.5,11 0 0 0 86.5,-15 Z m 142,19 A 8.5000001,4.5 0 0 0 220.00195,8.4804688 9.4999996,4 0 0 0 215,12 a 9.4999996,4 0 0 0 4.13672,3.300781 8.5000001,4.5 0 0 1 0.002,0 A 8.5000001,4.5 0 0 0 227.5,19 8.5000001,4.5 0 0 0 235.55469,15.925781 12.5,5.5 0 0 0 237.5,16 12.5,5.5 0 0 0 237.99023,15.992188 10.5,3 0 0 0 238.5,16 10.5,3 0 0 0 249,13 10.5,3 0 0 0 248.94141,12.708984 12.5,5.5 0 0 0 250,10.5 12.5,5.5 0 0 0 237.5,5 12.5,5.5 0 0 0 234.24805,5.1914062 8.5000001,4.5 0 0 0 228.5,4 Z M 136,24 A 40.999999,14.5 0 0 0 95.892578,35.513672 34.5,11 0 0 0 78.5,34 34.5,11 0 0 0 44,45 34.5,11 0 0 0 46.527344,49.117188 45.500001,12 0 0 0 7,61 45.500001,12 0 0 0 52.5,73 45.500001,12 0 0 0 98,61 45.500001,12 0 0 0 97.478516,59.267578 37.500001,15 0 0 0 103.75586,63.066406 47.000001,13 0 0 0 87,73 47.000001,13 0 0 0 134,86 47.000001,13 0 0 0 181,73 47.000001,13 0 0 0 177.31641,67.986328 39.000001,15.5 0 0 0 178,68 39.000001,15.5 0 0 0 217,52.5 39.000001,15.5 0 0 0 178,37 39.000001,15.5 0 0 0 176.74023,37.017578 40.999999,14.5 0 0 0 136,24 Z M 94.310547,54.773438 a 37.500001,15 0 0 0 1.068359,2.251953 45.500001,12 0 0 0 -3.318359,-1.923829 34.5,11 0 0 0 2.25,-0.328124 z M 222.5,81 a 8.5000001,3.5 0 0 0 -8.5,3.5 8.5000001,3.5 0 0 0 8.5,3.5 8.5000001,3.5 0 0 0 6.37891,-1.191406 A 5,2 0 0 0 231,87 5,2 0 0 0 236,85 5,2 0 0 0 235.52344,84.154297 8.0000001,2 0 0 0 237,83 8.0000001,2 0 0 0 229,81 8.0000001,2 0 0 0 225.39844,81.212891 8.5000001,3.5 0 0 0 222.5,81 Z" style="opacity:0.9020004;fill:#fffdfa;fill-opacity:1;stroke:#d4d4d4;stroke-width:2;stroke-linecap:round;stroke-linejoin:miter;stroke-miterlimit:4;stroke-dasharray:none;stroke-opacity:1;paint-order:stroke fill markers;filter:url(#filter6204)"></path>
    </g>
    <g id="layer6">
      <g transform="matrix(1.5015435,0,0,1.5015435,51.648943,2.4756402)" id="g5353">
        <path style="fill:url(#linearGradient5571);fill-opacity:1;stroke:none;stroke-width:0.93750477;stroke-linecap:round;stroke-linejoin:miter;stroke-miterlimit:4;stroke-dasharray:none;stroke-opacity:1;paint-order:stroke fill markers;filter:url(#filter5288)" id="path4748" d="m -105.00054,-17.629517 -9.8438,5.683321 0,-11.366641 z" transform="matrix(12.380952,0,0,3.221794,1258.7564,26.541987)"></path>
        <use x="0" y="0" xlink:href="#path4748" id="use5316" width="100%" height="100%"></use>
        <use x="0" y="0" xlink:href="#path4748" transform="rotate(30,-41.275044,-30.279976)" id="use5318" width="100%" height="100%"></use>
        <use x="0" y="0" xlink:href="#path4748" transform="rotate(60,-41.275044,-30.279976)" id="use5320" width="100%" height="100%"></use>
        <use x="0" y="0" xlink:href="#path4748" transform="rotate(90,-41.275044,-30.279976)" id="use5322" width="100%" height="100%"></use>
        <use x="0" y="0" xlink:href="#path4748" transform="rotate(120,-41.275044,-30.279976)" id="use5324" width="100%" height="100%"></use>
        <use x="0" y="0" xlink:href="#path4748" transform="rotate(150,-41.275044,-30.279976)" id="use5326" width="100%" height="100%"></use>
        <use x="0" y="0" xlink:href="#path4748" transform="rotate(180,-41.275044,-30.279976)" id="use5328" width="100%" height="100%"></use>
        <use x="0" y="0" xlink:href="#path4748" transform="rotate(-150,-41.275044,-30.279976)" id="use5330" width="100%" height="100%"></use>
        <use x="0" y="0" xlink:href="#path4748" transform="rotate(-120,-41.275044,-30.279976)" id="use5332" width="100%" height="100%"></use>
        <use x="0" y="0" xlink:href="#path4748" transform="rotate(-90,-41.275044,-30.279976)" id="use5334" width="100%" height="100%"></use>
        <use x="0" y="0" xlink:href="#path4748" transform="rotate(-60,-41.275044,-30.279976)" id="use5336" width="100%" height="100%"></use>
        <use x="0" y="0" xlink:href="#path4748" transform="rotate(-30,-41.275044,-30.279976)" id="use5338" width="100%" height="100%"></use>
      </g>
    </g>
    <g id="layer9">
      <path id="path4256" d="m 149.72744,-10.71796 0.65874,-1.818836 h 17.25031 l 0.65873,1.818836 z" style="display:inline;fill:#006a06;fill-opacity:1;stroke:none;stroke-width:1.69935417;stroke-linecap:round;stroke-miterlimit:4;stroke-dasharray:none;stroke-opacity:1"></path>
      <path id="path4254" d="m 152.08432,-9.1919722 h 13.85402 l -6.92701,7.047487 z" style="display:inline;fill:#786d52;fill-opacity:1;stroke:#645532;stroke-width:1.31311584;stroke-linecap:round;stroke-miterlimit:4;stroke-dasharray:none;stroke-opacity:1"></path>
      <path id="path5999" d="m 158.04177,-19.055032 c -1.47885,1.267581 -2.00701,1.901372 -3.90838,1.373212 -1.90137,-0.528158 -1.79574,-1.584475 -1.16194,-2.852056 0.63378,-1.267582 0.21126,-2.3239 -0.95069,-2.852059 -1.16195,-0.528158 2.11263,-4.119638 3.38022,-3.380216 1.26758,0.739422 -0.60947,1.16195 1.90137,1.16195 2.12317,0 1.05632,-0.528159 2.21826,-1.267582 1.16196,-0.739422 3.69711,-0.316896 5.28159,1.056318 1.58448,1.373214 1.26758,2.42953 0.63379,2.42953 -0.63379,0 -3.55411,2.216389 -0.3169,1.584477 3.07891,-0.60101 2.21827,2.535162 0.84506,3.063321 -1.37322,0.528159 -2.74643,0.105632 -2.74643,0.105632" style="display:inline;fill:#ff9cc7;fill-opacity:1;fill-rule:evenodd;stroke:#ff77b2;stroke-width:1.69935417;stroke-linecap:round;stroke-linejoin:miter;stroke-miterlimit:4;stroke-dasharray:none;stroke-opacity:1"></path>
      <path id="path4265" d="m 156.54631,-13.070276 c 0,0 4.33972,-4.510697 3.05686,-8.326593 -0.95322,-2.835341 3.34096,2.123074 0.88185,8.06307" style="display:inline;fill:#b2aeaa;fill-opacity:1;fill-rule:evenodd;stroke:#908b84;stroke-width:0.56645143;stroke-linecap:butt;stroke-linejoin:miter;stroke-miterlimit:4;stroke-dasharray:none;stroke-opacity:1"></path>
    </g>
    <g id="layer8">
      <path id="path5631" transform="matrix(0.93750476,0,0,0.93750476,14.132153,-25.100256)" d="M 185.5,2 A 24.5,8.5000001 0 0 0 163.0918,7.0761719 28.999999,12.5 0 0 0 137,19.5 28.999999,12.5 0 0 0 140.89648,25.728516 24.999999,10.5 0 0 0 135,32.5 24.999999,10.5 0 0 0 160,43 24.999999,10.5 0 0 0 171.27539,41.869141 22.5,5 0 0 0 185.5,43 22.5,5 0 0 0 207.54492,39 17.500001,6.5000001 0 0 0 225,32.5 17.500001,6.5000001 0 0 0 224.74023,31.386719 28.999999,6.0000001 0 0 0 241,26 28.999999,6.0000001 0 0 0 226.77734,20.845703 25.500001,7.0000001 0 0 0 229,18 25.500001,7.0000001 0 0 0 209.89453,11.232422 24.5,8.5000001 0 0 0 210,10.5 24.5,8.5000001 0 0 0 185.5,2 Z m -99,46 A 54.5,21.500001 0 0 0 51.986328,52.878906 36,18.5 0 0 0 30,49 36,18.5 0 0 0 -4.4902344,62.230469 42.5,18.999999 0 0 0 -32,80 42.5,18.999999 0 0 0 10.5,99 42.5,18.999999 0 0 0 50.962891,85.785156 54.5,21.500001 0 0 0 60.4375,88.380859 43.000001,9.4999996 0 0 0 58,91.5 43.000001,9.4999996 0 0 0 101,101 43.000001,9.4999996 0 0 0 133.97266,97.59375 28,11.5 0 0 0 156,102 28,11.5 0 0 0 159.63867,101.88867 34.5,13.5 0 0 0 188.5,108 34.5,13.5 0 0 0 223,94.5 34.5,13.5 0 0 0 219.92578,88.96875 37.999998,17.500001 0 0 0 256,71.5 37.999998,17.500001 0 0 0 218,54 37.999998,17.500001 0 0 0 189.06836,60.160156 48.999999,17 0 0 0 157,56 48.999999,17 0 0 0 154.91992,56.025391 35.499999,7.5000001 0 0 0 119.5,49 35.499999,7.5000001 0 0 0 106.50586,49.521484 54.5,21.500001 0 0 0 86.5,48 Z" style="opacity:0.8;fill:#fffdfa;fill-opacity:1;stroke:#d4d4d4;stroke-width:2;stroke-linecap:round;stroke-linejoin:miter;stroke-miterlimit:4;stroke-dasharray:none;stroke-opacity:1;paint-order:stroke fill markers;filter:url(#filter5986)"></path>
    </g>
  </g>
  <g style="display:inline" transform="translate(-157.89022,100.74478)" id="layer1">
    <g transform="translate(25.87365,-18.151363)" id="g4835">
      <g style="display:inline" id="g4694" transform="translate(215.65161,-72.408674)">
        <g id="g4692" transform="matrix(0.1394,0,0,0.1394,23.512,28.226)">
          <g style="fill:none;stroke:#ffffff;stroke-width:16.82197762;stroke-miterlimit:4;stroke-dasharray:none;stroke-opacity:1" id="g4560" transform="matrix(1.4385,0,0,1,-298.73,-228.18)">
            <path style="fill:none;stroke:#ffffff;stroke-width:16.82197762;stroke-miterlimit:4;stroke-dasharray:none;stroke-opacity:1" id="path4558" d="m 373.66,206.98 c 3.188,2.34 2.564,4.259 -1.389,4.259 h -244.54 c -3.962,0 -4.586,-1.919 -1.389,-4.259 l 117.85,-86.499 c 3.205,-2.344 8.414,-2.344 11.615,0 l 117.86,86.499 z"></path>
          </g>
          <path style="fill:none;stroke:#ffffff;stroke-width:20.17585754;stroke-miterlimit:4;stroke-dasharray:none;stroke-opacity:1" id="path4562" d="m 169.56,-19.106 c 4.1055,2.103 3.2942,3.816 -1.801,3.816 h -213.73 c -5.1024,0 -5.9137,-1.714 -1.7953,-3.816 l 101.19,-51.628 c 4.1185,-2.098 10.826,-2.098 14.932,0 z"></path>
          <path style="fill:#ffffff;fill-opacity:1;stroke:#ffffff;stroke-width:6.72528553;stroke-miterlimit:4;stroke-dasharray:none;stroke-opacity:1" id="path4564" d="m 234.87,131.69 c 0,2.6584 -4.6776,4.8293 -10.406,4.8293 h -327.16 c -5.7158,0 -10.406,-2.1709 -10.406,-4.8293 v -8.7146 c 0,-2.6584 4.6906,-4.8293 10.406,-4.8293 h 327.16 c 5.7288,0 10.406,2.1709 10.406,4.8293 z"></path>
          <path style="fill:#ffffff;fill-opacity:1;stroke:#ffffff;stroke-width:6.72528553;stroke-miterlimit:4;stroke-dasharray:none;stroke-opacity:1" id="path4566" d="m 225.63,118.42 c 0,-3.5024 -4.6848,-6.3772 -10.406,-6.3772 h -305.76 c -5.7215,0 -10.393,2.8748 -10.393,6.3772 v 4.5556 c 0,3.5103 4.6718,6.379 10.393,6.379 h 305.76 c 5.7215,0 10.406,-2.8695 10.406,-6.379 z"></path>
          <g style="fill:#ffffff;fill-opacity:1;stroke:#ffffff;stroke-width:6.72528553;stroke-miterlimit:4;stroke-dasharray:none;stroke-opacity:1" id="g4586" transform="translate(48.598,-10.32)">
            <path id="path4568" d="m -0.37493,100.5 c 0,3.957 -3.24,7.188 -7.205,7.188 h -11.124 c -3.957,0 -7.21,-3.231 -7.21,-7.188 V 18.439 c 0,-3.959 3.252,-7.199 7.21,-7.199 h 11.124 c 3.966,0 7.205,3.239 7.205,7.199 z" style="fill:#ffffff;fill-opacity:1;stroke:#ffffff;stroke-width:6.72528553;stroke-miterlimit:4;stroke-dasharray:none;stroke-opacity:1"></path>
            <g id="g4572" transform="translate(-181.67,-211.86)" style="fill:#ffffff;fill-opacity:1;stroke:#ffffff;stroke-width:6.72528553;stroke-miterlimit:4;stroke-dasharray:none;stroke-opacity:1">
              <path style="fill:#ffffff;fill-opacity:1;stroke:#ffffff;stroke-width:6.72528553;stroke-miterlimit:4;stroke-dasharray:none;stroke-opacity:1" id="path4570" d="m 186.77,232.91 c 0,3.579 -3.24,6.519 -7.197,6.519 h -22.077 c -3.97,0 -7.196,-2.94 -7.196,-6.519 0,-3.587 3.226,-6.521 7.196,-6.521 h 22.077 c 3.957,0 7.197,2.934 7.197,6.521 z"></path>
            </g>
            <g id="g4576" transform="translate(-181.67,-211.86)" style="fill:#ffffff;fill-opacity:1;stroke:#ffffff;stroke-width:6.72528553;stroke-miterlimit:4;stroke-dasharray:none;stroke-opacity:1">
              <path style="fill:#ffffff;fill-opacity:1;stroke:#ffffff;stroke-width:6.72528553;stroke-miterlimit:4;stroke-dasharray:none;stroke-opacity:1" id="path4574" d="m 184.04,243.17 c 0,1.584 -1.299,2.879 -2.876,2.879 h -25.256 c -1.585,0 -2.889,-1.295 -2.889,-2.879 v -0.746 c 0,-1.596 1.303,-2.895 2.889,-2.895 h 25.256 c 1.577,0 2.876,1.299 2.876,2.895 z"></path>
            </g>
            <g id="g4580" transform="translate(-181.67,-211.86)" style="fill:#ffffff;fill-opacity:1;stroke:#ffffff;stroke-width:6.72528553;stroke-miterlimit:4;stroke-dasharray:none;stroke-opacity:1">
              <path style="fill:#ffffff;fill-opacity:1;stroke:#ffffff;stroke-width:6.72528553;stroke-miterlimit:4;stroke-dasharray:none;stroke-opacity:1" id="path4578" d="m 184.04,314.09 c 0,1.588 -1.299,2.876 -2.876,2.876 h -25.256 c -1.585,0 -2.889,-1.288 -2.889,-2.876 v -0.767 c 0,-1.575 1.303,-2.876 2.889,-2.876 h 25.256 c 1.577,0 2.876,1.301 2.876,2.876 z"></path>
            </g>
            <g id="g4584" transform="translate(-181.67,-211.86)" style="fill:#ffffff;fill-opacity:1;stroke:#ffffff;stroke-width:6.72528553;stroke-miterlimit:4;stroke-dasharray:none;stroke-opacity:1">
              <path style="fill:#ffffff;fill-opacity:1;stroke:#ffffff;stroke-width:6.72528553;stroke-miterlimit:4;stroke-dasharray:none;stroke-opacity:1" id="path4582" d="m 186.77,323.47 c 0,3.59 -3.24,6.517 -7.197,6.517 h -22.077 c -3.97,0 -7.196,-2.927 -7.196,-6.517 0,-3.586 3.226,-6.511 7.196,-6.511 h 22.077 c 3.957,10e-4 7.197,2.926 7.197,6.511 z"></path>
            </g>
          </g>
          <g style="fill:#ffffff;fill-opacity:1;stroke:#ffffff;stroke-width:6.72528553;stroke-miterlimit:4;stroke-dasharray:none;stroke-opacity:1" id="g4606" transform="translate(47.681,-10.32)">
            <path id="path4588" d="m 162.57,100.5 c 0,3.957 -3.252,7.188 -7.209,7.188 h -11.133 c -3.961,0 -7.196,-3.231 -7.196,-7.188 V 18.439 c 0,-3.959 3.235,-7.199 7.196,-7.199 h 11.133 c 3.957,0 7.209,3.239 7.209,7.199 z" style="fill:#ffffff;fill-opacity:1;stroke:#ffffff;stroke-width:6.72528553;stroke-miterlimit:4;stroke-dasharray:none;stroke-opacity:1"></path>
            <g id="g4592" transform="translate(-181.67,-211.86)" style="fill:#ffffff;fill-opacity:1;stroke:#ffffff;stroke-width:6.72528553;stroke-miterlimit:4;stroke-dasharray:none;stroke-opacity:1">
              <path style="fill:#ffffff;fill-opacity:1;stroke:#ffffff;stroke-width:6.72528553;stroke-miterlimit:4;stroke-dasharray:none;stroke-opacity:1" id="path4590" d="m 349.71,232.91 c 0,3.579 -3.244,6.519 -7.192,6.519 h -22.094 c -3.961,0 -7.192,-2.94 -7.192,-6.519 0,-3.587 3.231,-6.521 7.192,-6.521 h 22.094 c 3.949,0 7.192,2.934 7.192,6.521 z"></path>
            </g>
            <g id="g4596" transform="translate(-181.67,-211.86)" style="fill:#ffffff;fill-opacity:1;stroke:#ffffff;stroke-width:6.72528553;stroke-miterlimit:4;stroke-dasharray:none;stroke-opacity:1">
              <path style="fill:#ffffff;fill-opacity:1;stroke:#ffffff;stroke-width:6.72528553;stroke-miterlimit:4;stroke-dasharray:none;stroke-opacity:1" id="path4594" d="m 346.98,243.17 c 0,1.584 -1.295,2.879 -2.885,2.879 h -25.256 c -1.585,0 -2.88,-1.295 -2.88,-2.879 v -0.746 c 0,-1.596 1.295,-2.895 2.88,-2.895 h 25.256 c 1.59,0 2.885,1.299 2.885,2.895 z"></path>
            </g>
            <g id="g4600" transform="translate(-181.67,-211.86)" style="fill:#ffffff;fill-opacity:1;stroke:#ffffff;stroke-width:6.72528553;stroke-miterlimit:4;stroke-dasharray:none;stroke-opacity:1">
              <path style="fill:#ffffff;fill-opacity:1;stroke:#ffffff;stroke-width:6.72528553;stroke-miterlimit:4;stroke-dasharray:none;stroke-opacity:1" id="path4598" d="m 346.98,314.09 c 0,1.588 -1.295,2.876 -2.885,2.876 h -25.256 c -1.585,0 -2.88,-1.288 -2.88,-2.876 v -0.767 c 0,-1.575 1.295,-2.876 2.88,-2.876 h 25.256 c 1.59,0 2.885,1.301 2.885,2.876 z"></path>
            </g>
            <g id="g4604" transform="translate(-181.67,-211.86)" style="fill:#ffffff;fill-opacity:1;stroke:#ffffff;stroke-width:6.72528553;stroke-miterlimit:4;stroke-dasharray:none;stroke-opacity:1">
              <path style="fill:#ffffff;fill-opacity:1;stroke:#ffffff;stroke-width:6.72528553;stroke-miterlimit:4;stroke-dasharray:none;stroke-opacity:1" id="path4602" d="m 349.71,323.47 c 0,3.59 -3.244,6.517 -7.192,6.517 h -22.094 c -3.961,0 -7.192,-2.927 -7.192,-6.517 0,-3.586 3.231,-6.511 7.192,-6.511 h 22.094 c 3.949,10e-4 7.192,2.926 7.192,6.511 z"></path>
            </g>
          </g>
          <g style="fill:#ffffff;fill-opacity:1;stroke:#ffffff;stroke-width:6.72528553;stroke-miterlimit:4;stroke-dasharray:none;stroke-opacity:1" id="g4626" transform="translate(47.996,-10.32)">
            <path id="path4608" d="m 108.25,100.5 c 0,3.957 -3.239,7.188 -7.196,7.188 H 89.917 c -3.962,0 -7.188,-3.231 -7.188,-7.188 V 18.439 c 0,-3.959 3.226,-7.199 7.188,-7.199 h 11.137 c 3.957,0 7.196,3.239 7.196,7.199 z" style="fill:#ffffff;fill-opacity:1;stroke:#ffffff;stroke-width:6.72528553;stroke-miterlimit:4;stroke-dasharray:none;stroke-opacity:1"></path>
            <g id="g4612" transform="translate(-181.67,-211.86)" style="fill:#ffffff;fill-opacity:1;stroke:#ffffff;stroke-width:6.72528553;stroke-miterlimit:4;stroke-dasharray:none;stroke-opacity:1">
              <path style="fill:#ffffff;fill-opacity:1;stroke:#ffffff;stroke-width:6.72528553;stroke-miterlimit:4;stroke-dasharray:none;stroke-opacity:1" id="path4610" d="m 295.39,232.91 c 0,3.579 -3.244,6.519 -7.201,6.519 h -22.081 c -3.957,0 -7.201,-2.94 -7.201,-6.519 0,-3.587 3.244,-6.521 7.201,-6.521 h 22.081 c 3.958,0 7.201,2.934 7.201,6.521 z"></path>
            </g>
            <g id="g4616" transform="translate(-181.67,-211.86)" style="fill:#ffffff;fill-opacity:1;stroke:#ffffff;stroke-width:6.72528553;stroke-miterlimit:4;stroke-dasharray:none;stroke-opacity:1">
              <path style="fill:#ffffff;fill-opacity:1;stroke:#ffffff;stroke-width:6.72528553;stroke-miterlimit:4;stroke-dasharray:none;stroke-opacity:1" id="path4614" d="m 292.66,243.17 c 0,1.584 -1.295,2.879 -2.876,2.879 h -25.252 c -1.598,0 -2.885,-1.295 -2.885,-2.879 v -0.746 c 0,-1.596 1.287,-2.895 2.885,-2.895 h 25.252 c 1.581,0 2.876,1.299 2.876,2.895 z"></path>
            </g>
            <g id="g4620" transform="translate(-181.67,-211.86)" style="fill:#ffffff;fill-opacity:1;stroke:#ffffff;stroke-width:6.72528553;stroke-miterlimit:4;stroke-dasharray:none;stroke-opacity:1">
              <path style="fill:#ffffff;fill-opacity:1;stroke:#ffffff;stroke-width:6.72528553;stroke-miterlimit:4;stroke-dasharray:none;stroke-opacity:1" id="path4618" d="m 292.66,314.09 c 0,1.588 -1.295,2.876 -2.876,2.876 h -25.252 c -1.598,0 -2.885,-1.288 -2.885,-2.876 v -0.767 c 0,-1.575 1.287,-2.876 2.885,-2.876 h 25.252 c 1.581,0 2.876,1.301 2.876,2.876 z"></path>
            </g>
            <g id="g4624" transform="translate(-181.67,-211.86)" style="fill:#ffffff;fill-opacity:1;stroke:#ffffff;stroke-width:6.72528553;stroke-miterlimit:4;stroke-dasharray:none;stroke-opacity:1">
              <path style="fill:#ffffff;fill-opacity:1;stroke:#ffffff;stroke-width:6.72528553;stroke-miterlimit:4;stroke-dasharray:none;stroke-opacity:1" id="path4622" d="m 295.39,323.47 c 0,3.59 -3.244,6.517 -7.201,6.517 h -22.081 c -3.957,0 -7.201,-2.927 -7.201,-6.517 0,-3.586 3.244,-6.511 7.201,-6.511 h 22.081 c 3.958,10e-4 7.201,2.926 7.201,6.511 z"></path>
            </g>
          </g>
          <g style="fill:#ffffff;fill-opacity:1;stroke:#ffffff;stroke-width:6.72528553;stroke-miterlimit:4;stroke-dasharray:none;stroke-opacity:1" id="g4646" transform="translate(48.293,-10.32)">
            <path id="path4628" d="m 53.932,100.5 c 0,3.957 -3.235,7.188 -7.188,7.188 H 35.599 c -3.949,0 -7.188,-3.231 -7.188,-7.188 V 18.439 c 0,-3.959 3.239,-7.199 7.188,-7.199 h 11.145 c 3.953,0 7.188,3.239 7.188,7.199 z" style="fill:#ffffff;fill-opacity:1;stroke:#ffffff;stroke-width:6.72528553;stroke-miterlimit:4;stroke-dasharray:none;stroke-opacity:1"></path>
            <g id="g4632" transform="translate(-181.67,-211.86)" style="fill:#ffffff;fill-opacity:1;stroke:#ffffff;stroke-width:6.72528553;stroke-miterlimit:4;stroke-dasharray:none;stroke-opacity:1">
              <path style="fill:#ffffff;fill-opacity:1;stroke:#ffffff;stroke-width:6.72528553;stroke-miterlimit:4;stroke-dasharray:none;stroke-opacity:1" id="path4630" d="m 241.08,232.91 c 0,3.579 -3.248,6.519 -7.201,6.519 h -22.085 c -3.957,0 -7.196,-2.94 -7.196,-6.519 0,-3.587 3.239,-6.521 7.196,-6.521 h 22.085 c 3.953,0 7.201,2.934 7.201,6.521 z"></path>
            </g>
            <g id="g4636" transform="translate(-181.67,-211.86)" style="fill:#ffffff;fill-opacity:1;stroke:#ffffff;stroke-width:6.72528553;stroke-miterlimit:4;stroke-dasharray:none;stroke-opacity:1">
              <path style="fill:#ffffff;fill-opacity:1;stroke:#ffffff;stroke-width:6.72528553;stroke-miterlimit:4;stroke-dasharray:none;stroke-opacity:1" id="path4634" d="m 238.35,243.17 c 0,1.584 -1.312,2.879 -2.884,2.879 h -25.252 c -1.59,0 -2.88,-1.295 -2.88,-2.879 v -0.746 c 0,-1.596 1.29,-2.895 2.88,-2.895 h 25.252 c 1.572,0 2.884,1.299 2.884,2.895 z"></path>
            </g>
            <g id="g4640" transform="translate(-181.67,-211.86)" style="fill:#ffffff;fill-opacity:1;stroke:#ffffff;stroke-width:6.72528553;stroke-miterlimit:4;stroke-dasharray:none;stroke-opacity:1">
              <path style="fill:#ffffff;fill-opacity:1;stroke:#ffffff;stroke-width:6.72528553;stroke-miterlimit:4;stroke-dasharray:none;stroke-opacity:1" id="path4638" d="m 238.35,314.09 c 0,1.588 -1.312,2.876 -2.884,2.876 h -25.252 c -1.59,0 -2.88,-1.288 -2.88,-2.876 v -0.767 c 0,-1.575 1.29,-2.876 2.88,-2.876 h 25.252 c 1.572,0 2.884,1.301 2.884,2.876 z"></path>
            </g>
            <g id="g4644" transform="translate(-181.67,-211.86)" style="fill:#ffffff;fill-opacity:1;stroke:#ffffff;stroke-width:6.72528553;stroke-miterlimit:4;stroke-dasharray:none;stroke-opacity:1">
              <path style="fill:#ffffff;fill-opacity:1;stroke:#ffffff;stroke-width:6.72528553;stroke-miterlimit:4;stroke-dasharray:none;stroke-opacity:1" id="path4642" d="m 241.08,323.47 c 0,3.59 -3.248,6.517 -7.201,6.517 h -22.085 c -3.957,0 -7.196,-2.927 -7.196,-6.517 0,-3.586 3.239,-6.511 7.196,-6.511 h 22.085 c 3.953,10e-4 7.201,2.926 7.201,6.511 z"></path>
            </g>
          </g>
          <path style="fill:#ffffff;fill-opacity:1;stroke:#ffffff;stroke-width:6.72528553;stroke-miterlimit:4;stroke-dasharray:none;stroke-opacity:1" id="path4648" d="m 223.33,-13.276 c 0,-3.3508 -4.6608,-6.1028 -10.353,-6.1028 h -304.19 c -5.6922,0 -10.34,2.7521 -10.34,6.1028 v 4.3601 c 0,3.3508 4.6478,6.0978 10.34,6.0978 h 304.19 c 5.6922,0 10.353,-2.7462 10.353,-6.0978 z"></path>
          <g style="fill:#ffffff;fill-opacity:1;stroke:#ffffff;stroke-width:6.72528553;stroke-miterlimit:4;stroke-dasharray:none;stroke-opacity:1" id="g4668" transform="translate(-59.409,-10.32)">
            <path id="path4650" d="m -0.37493,100.5 c 0,3.957 -3.24,7.188 -7.205,7.188 h -11.124 c -3.957,0 -7.21,-3.231 -7.21,-7.188 V 18.439 c 0,-3.959 3.252,-7.199 7.21,-7.199 h 11.124 c 3.966,0 7.205,3.239 7.205,7.199 z" style="fill:#ffffff;fill-opacity:1;stroke:#ffffff;stroke-width:6.72528553;stroke-miterlimit:4;stroke-dasharray:none;stroke-opacity:1"></path>
            <g id="g4654" transform="translate(-181.67,-211.86)" style="fill:#ffffff;fill-opacity:1;stroke:#ffffff;stroke-width:6.72528553;stroke-miterlimit:4;stroke-dasharray:none;stroke-opacity:1">
              <path style="fill:#ffffff;fill-opacity:1;stroke:#ffffff;stroke-width:6.72528553;stroke-miterlimit:4;stroke-dasharray:none;stroke-opacity:1" id="path4652" d="m 186.77,232.91 c 0,3.579 -3.24,6.519 -7.197,6.519 h -22.077 c -3.97,0 -7.196,-2.94 -7.196,-6.519 0,-3.587 3.226,-6.521 7.196,-6.521 h 22.077 c 3.957,0 7.197,2.934 7.197,6.521 z"></path>
            </g>
            <g id="g4658" transform="translate(-181.67,-211.86)" style="fill:#ffffff;fill-opacity:1;stroke:#ffffff;stroke-width:6.72528553;stroke-miterlimit:4;stroke-dasharray:none;stroke-opacity:1">
              <path style="fill:#ffffff;fill-opacity:1;stroke:#ffffff;stroke-width:6.72528553;stroke-miterlimit:4;stroke-dasharray:none;stroke-opacity:1" id="path4656" d="m 184.04,243.17 c 0,1.584 -1.299,2.879 -2.876,2.879 h -25.256 c -1.585,0 -2.889,-1.295 -2.889,-2.879 v -0.746 c 0,-1.596 1.303,-2.895 2.889,-2.895 h 25.256 c 1.577,0 2.876,1.299 2.876,2.895 z"></path>
            </g>
            <g id="g4662" transform="translate(-181.67,-211.86)" style="fill:#ffffff;fill-opacity:1;stroke:#ffffff;stroke-width:6.72528553;stroke-miterlimit:4;stroke-dasharray:none;stroke-opacity:1">
              <path style="fill:#ffffff;fill-opacity:1;stroke:#ffffff;stroke-width:6.72528553;stroke-miterlimit:4;stroke-dasharray:none;stroke-opacity:1" id="path4660" d="m 184.04,314.09 c 0,1.588 -1.299,2.876 -2.876,2.876 h -25.256 c -1.585,0 -2.889,-1.288 -2.889,-2.876 v -0.767 c 0,-1.575 1.303,-2.876 2.889,-2.876 h 25.256 c 1.577,0 2.876,1.301 2.876,2.876 z"></path>
            </g>
            <g id="g4666" transform="translate(-181.67,-211.86)" style="fill:#ffffff;fill-opacity:1;stroke:#ffffff;stroke-width:6.72528553;stroke-miterlimit:4;stroke-dasharray:none;stroke-opacity:1">
              <path style="fill:#ffffff;fill-opacity:1;stroke:#ffffff;stroke-width:6.72528553;stroke-miterlimit:4;stroke-dasharray:none;stroke-opacity:1" id="path4664" d="m 186.77,323.47 c 0,3.59 -3.24,6.517 -7.197,6.517 h -22.077 c -3.97,0 -7.196,-2.927 -7.196,-6.517 0,-3.586 3.226,-6.511 7.196,-6.511 h 22.077 c 3.957,10e-4 7.197,2.926 7.197,6.511 z"></path>
            </g>
          </g>
          <g style="fill:#ffffff;fill-opacity:1;stroke:#ffffff;stroke-width:6.72528553;stroke-miterlimit:4;stroke-dasharray:none;stroke-opacity:1" id="g4688" transform="translate(-59.714,-10.32)">
            <path id="path4670" d="m 53.932,100.5 c 0,3.957 -3.235,7.188 -7.188,7.188 H 35.599 c -3.949,0 -7.188,-3.231 -7.188,-7.188 V 18.439 c 0,-3.959 3.239,-7.199 7.188,-7.199 h 11.145 c 3.953,0 7.188,3.239 7.188,7.199 z" style="fill:#ffffff;fill-opacity:1;stroke:#ffffff;stroke-width:6.72528553;stroke-miterlimit:4;stroke-dasharray:none;stroke-opacity:1"></path>
            <g id="g4674" transform="translate(-181.67,-211.86)" style="fill:#ffffff;fill-opacity:1;stroke:#ffffff;stroke-width:6.72528553;stroke-miterlimit:4;stroke-dasharray:none;stroke-opacity:1">
              <path style="fill:#ffffff;fill-opacity:1;stroke:#ffffff;stroke-width:6.72528553;stroke-miterlimit:4;stroke-dasharray:none;stroke-opacity:1" id="path4672" d="m 241.08,232.91 c 0,3.579 -3.248,6.519 -7.201,6.519 h -22.085 c -3.957,0 -7.196,-2.94 -7.196,-6.519 0,-3.587 3.239,-6.521 7.196,-6.521 h 22.085 c 3.953,0 7.201,2.934 7.201,6.521 z"></path>
            </g>
            <g id="g4678" transform="translate(-181.67,-211.86)" style="fill:#ffffff;fill-opacity:1;stroke:#ffffff;stroke-width:6.72528553;stroke-miterlimit:4;stroke-dasharray:none;stroke-opacity:1">
              <path style="fill:#ffffff;fill-opacity:1;stroke:#ffffff;stroke-width:6.72528553;stroke-miterlimit:4;stroke-dasharray:none;stroke-opacity:1" id="path4676" d="m 238.35,243.17 c 0,1.584 -1.312,2.879 -2.884,2.879 h -25.252 c -1.59,0 -2.88,-1.295 -2.88,-2.879 v -0.746 c 0,-1.596 1.29,-2.895 2.88,-2.895 h 25.252 c 1.572,0 2.884,1.299 2.884,2.895 z"></path>
            </g>
            <g id="g4682" transform="translate(-181.67,-211.86)" style="fill:#ffffff;fill-opacity:1;stroke:#ffffff;stroke-width:6.72528553;stroke-miterlimit:4;stroke-dasharray:none;stroke-opacity:1">
              <path style="fill:#ffffff;fill-opacity:1;stroke:#ffffff;stroke-width:6.72528553;stroke-miterlimit:4;stroke-dasharray:none;stroke-opacity:1" id="path4680" d="m 238.35,314.09 c 0,1.588 -1.312,2.876 -2.884,2.876 h -25.252 c -1.59,0 -2.88,-1.288 -2.88,-2.876 v -0.767 c 0,-1.575 1.29,-2.876 2.88,-2.876 h 25.252 c 1.572,0 2.884,1.301 2.884,2.876 z"></path>
            </g>
            <g id="g4686" transform="translate(-181.67,-211.86)" style="fill:#ffffff;fill-opacity:1;stroke:#ffffff;stroke-width:6.72528553;stroke-miterlimit:4;stroke-dasharray:none;stroke-opacity:1">
              <path style="fill:#ffffff;fill-opacity:1;stroke:#ffffff;stroke-width:6.72528553;stroke-miterlimit:4;stroke-dasharray:none;stroke-opacity:1" id="path4684" d="m 241.08,323.47 c 0,3.59 -3.248,6.517 -7.201,6.517 h -22.085 c -3.957,0 -7.196,-2.927 -7.196,-6.517 0,-3.586 3.239,-6.511 7.196,-6.511 h 22.085 c 3.953,10e-4 7.201,2.926 7.201,6.511 z"></path>
            </g>
          </g>
          <path style="fill:#ffffff;fill-opacity:1;stroke:#ffffff;stroke-width:6.72528553;stroke-miterlimit:4;stroke-dasharray:none;stroke-opacity:1" id="path4690" d="m 234.87,158.78 c 0,2.6584 -4.6776,4.8293 -10.406,4.8293 h -327.16 c -5.7158,0 -10.406,-2.1709 -10.406,-4.8293 v -8.7146 c 0,-2.6584 4.6906,-4.8293 10.406,-4.8293 h 327.16 c 5.7288,0 10.406,2.1709 10.406,4.8293 z"></path>
        </g>
      </g>
      <g transform="translate(215.65161,-72.408674)" id="g6">
        <g transform="matrix(0.1394,0,0,0.1394,23.512,28.226)" id="g8">
          <g transform="matrix(1.4385,0,0,1,-298.73,-228.18)" id="g10" style="fill:none;stroke:#6900a5;stroke-width:11.96199989">
            <path d="m 373.66,206.98 c 3.188,2.34 2.564,4.259 -1.389,4.259 h -244.54 c -3.962,0 -4.586,-1.919 -1.389,-4.259 l 117.85,-86.499 c 3.205,-2.344 8.414,-2.344 11.615,0 l 117.86,86.499 z" id="path12" style="fill:none;stroke:#6900a5;stroke-width:11.96199989"></path>
          </g>
          <path d="m 169.56,-19.106 c 4.1055,2.103 3.2942,3.816 -1.801,3.816 h -213.73 c -5.1024,0 -5.9137,-1.714 -1.7953,-3.816 l 101.19,-51.628 c 4.1185,-2.098 10.826,-2.098 14.932,0 z" id="path14" style="fill:none;stroke:#6900a5;stroke-width:14.34700012"></path>
          <path d="m 234.87,131.69 c 0,2.6584 -4.6776,4.8293 -10.406,4.8293 h -327.16 c -5.7158,0 -10.406,-2.1709 -10.406,-4.8293 v -8.7146 c 0,-2.6584 4.6906,-4.8293 10.406,-4.8293 h 327.16 c 5.7288,0 10.406,2.1709 10.406,4.8293 z" id="path16" style="fill:#6900a5"></path>
          <path d="m 225.63,118.42 c 0,-3.5024 -4.6848,-6.3772 -10.406,-6.3772 h -305.76 c -5.7215,0 -10.393,2.8748 -10.393,6.3772 v 4.5556 c 0,3.5103 4.6718,6.379 10.393,6.379 h 305.76 c 5.7215,0 10.406,-2.8695 10.406,-6.379 z" id="path18" style="fill:#6900a5"></path>
          <g transform="translate(48.598,-10.32)" id="g20" style="fill:#6900a5">
            <path d="m -0.37493,100.5 c 0,3.957 -3.24,7.188 -7.205,7.188 h -11.124 c -3.957,0 -7.21,-3.231 -7.21,-7.188 V 18.439 c 0,-3.959 3.252,-7.199 7.21,-7.199 h 11.124 c 3.966,0 7.205,3.239 7.205,7.199 z" id="path22"></path>
            <g transform="translate(-181.67,-211.86)" id="g24">
              <path d="m 186.77,232.91 c 0,3.579 -3.24,6.519 -7.197,6.519 h -22.077 c -3.97,0 -7.196,-2.94 -7.196,-6.519 0,-3.587 3.226,-6.521 7.196,-6.521 h 22.077 c 3.957,0 7.197,2.934 7.197,6.521 z" id="path26" style="fill:#6900a5"></path>
            </g>
            <g transform="translate(-181.67,-211.86)" id="g28">
              <path d="m 184.04,243.17 c 0,1.584 -1.299,2.879 -2.876,2.879 h -25.256 c -1.585,0 -2.889,-1.295 -2.889,-2.879 v -0.746 c 0,-1.596 1.303,-2.895 2.889,-2.895 h 25.256 c 1.577,0 2.876,1.299 2.876,2.895 z" id="path30" style="fill:#6900a5"></path>
            </g>
            <g transform="translate(-181.67,-211.86)" id="g32">
              <path d="m 184.04,314.09 c 0,1.588 -1.299,2.876 -2.876,2.876 h -25.256 c -1.585,0 -2.889,-1.288 -2.889,-2.876 v -0.767 c 0,-1.575 1.303,-2.876 2.889,-2.876 h 25.256 c 1.577,0 2.876,1.301 2.876,2.876 z" id="path34" style="fill:#6900a5"></path>
            </g>
            <g transform="translate(-181.67,-211.86)" id="g36">
              <path d="m 186.77,323.47 c 0,3.59 -3.24,6.517 -7.197,6.517 h -22.077 c -3.97,0 -7.196,-2.927 -7.196,-6.517 0,-3.586 3.226,-6.511 7.196,-6.511 h 22.077 c 3.957,10e-4 7.197,2.926 7.197,6.511 z" id="path38" style="fill:#6900a5"></path>
            </g>
          </g>
          <g transform="translate(47.681,-10.32)" id="g40" style="fill:#6900a5">
            <path d="m 162.57,100.5 c 0,3.957 -3.252,7.188 -7.209,7.188 h -11.133 c -3.961,0 -7.196,-3.231 -7.196,-7.188 V 18.439 c 0,-3.959 3.235,-7.199 7.196,-7.199 h 11.133 c 3.957,0 7.209,3.239 7.209,7.199 z" id="path42"></path>
            <g transform="translate(-181.67,-211.86)" id="g44">
              <path d="m 349.71,232.91 c 0,3.579 -3.244,6.519 -7.192,6.519 h -22.094 c -3.961,0 -7.192,-2.94 -7.192,-6.519 0,-3.587 3.231,-6.521 7.192,-6.521 h 22.094 c 3.949,0 7.192,2.934 7.192,6.521 z" id="path46" style="fill:#6900a5"></path>
            </g>
            <g transform="translate(-181.67,-211.86)" id="g48">
              <path d="m 346.98,243.17 c 0,1.584 -1.295,2.879 -2.885,2.879 h -25.256 c -1.585,0 -2.88,-1.295 -2.88,-2.879 v -0.746 c 0,-1.596 1.295,-2.895 2.88,-2.895 h 25.256 c 1.59,0 2.885,1.299 2.885,2.895 z" id="path50" style="fill:#6900a5"></path>
            </g>
            <g transform="translate(-181.67,-211.86)" id="g52">
              <path d="m 346.98,314.09 c 0,1.588 -1.295,2.876 -2.885,2.876 h -25.256 c -1.585,0 -2.88,-1.288 -2.88,-2.876 v -0.767 c 0,-1.575 1.295,-2.876 2.88,-2.876 h 25.256 c 1.59,0 2.885,1.301 2.885,2.876 z" id="path54" style="fill:#6900a5"></path>
            </g>
            <g transform="translate(-181.67,-211.86)" id="g56">
              <path d="m 349.71,323.47 c 0,3.59 -3.244,6.517 -7.192,6.517 h -22.094 c -3.961,0 -7.192,-2.927 -7.192,-6.517 0,-3.586 3.231,-6.511 7.192,-6.511 h 22.094 c 3.949,10e-4 7.192,2.926 7.192,6.511 z" id="path58" style="fill:#6900a5"></path>
            </g>
          </g>
          <g transform="translate(47.996,-10.32)" id="g60" style="fill:#6900a5">
            <path d="m 108.25,100.5 c 0,3.957 -3.239,7.188 -7.196,7.188 H 89.917 c -3.962,0 -7.188,-3.231 -7.188,-7.188 V 18.439 c 0,-3.959 3.226,-7.199 7.188,-7.199 h 11.137 c 3.957,0 7.196,3.239 7.196,7.199 z" id="path62"></path>
            <g transform="translate(-181.67,-211.86)" id="g64">
              <path d="m 295.39,232.91 c 0,3.579 -3.244,6.519 -7.201,6.519 h -22.081 c -3.957,0 -7.201,-2.94 -7.201,-6.519 0,-3.587 3.244,-6.521 7.201,-6.521 h 22.081 c 3.958,0 7.201,2.934 7.201,6.521 z" id="path66" style="fill:#6900a5"></path>
            </g>
            <g transform="translate(-181.67,-211.86)" id="g68">
              <path d="m 292.66,243.17 c 0,1.584 -1.295,2.879 -2.876,2.879 h -25.252 c -1.598,0 -2.885,-1.295 -2.885,-2.879 v -0.746 c 0,-1.596 1.287,-2.895 2.885,-2.895 h 25.252 c 1.581,0 2.876,1.299 2.876,2.895 z" id="path70" style="fill:#6900a5"></path>
            </g>
            <g transform="translate(-181.67,-211.86)" id="g72">
              <path d="m 292.66,314.09 c 0,1.588 -1.295,2.876 -2.876,2.876 h -25.252 c -1.598,0 -2.885,-1.288 -2.885,-2.876 v -0.767 c 0,-1.575 1.287,-2.876 2.885,-2.876 h 25.252 c 1.581,0 2.876,1.301 2.876,2.876 z" id="path74" style="fill:#6900a5"></path>
            </g>
            <g transform="translate(-181.67,-211.86)" id="g76">
              <path d="m 295.39,323.47 c 0,3.59 -3.244,6.517 -7.201,6.517 h -22.081 c -3.957,0 -7.201,-2.927 -7.201,-6.517 0,-3.586 3.244,-6.511 7.201,-6.511 h 22.081 c 3.958,10e-4 7.201,2.926 7.201,6.511 z" id="path78" style="fill:#6900a5"></path>
            </g>
          </g>
          <g transform="translate(48.293,-10.32)" id="g80" style="fill:#6900a5">
            <path d="m 53.932,100.5 c 0,3.957 -3.235,7.188 -7.188,7.188 H 35.599 c -3.949,0 -7.188,-3.231 -7.188,-7.188 V 18.439 c 0,-3.959 3.239,-7.199 7.188,-7.199 h 11.145 c 3.953,0 7.188,3.239 7.188,7.199 z" id="path82"></path>
            <g transform="translate(-181.67,-211.86)" id="g84">
              <path d="m 241.08,232.91 c 0,3.579 -3.248,6.519 -7.201,6.519 h -22.085 c -3.957,0 -7.196,-2.94 -7.196,-6.519 0,-3.587 3.239,-6.521 7.196,-6.521 h 22.085 c 3.953,0 7.201,2.934 7.201,6.521 z" id="path86" style="fill:#6900a5"></path>
            </g>
            <g transform="translate(-181.67,-211.86)" id="g88">
              <path d="m 238.35,243.17 c 0,1.584 -1.312,2.879 -2.884,2.879 h -25.252 c -1.59,0 -2.88,-1.295 -2.88,-2.879 v -0.746 c 0,-1.596 1.29,-2.895 2.88,-2.895 h 25.252 c 1.572,0 2.884,1.299 2.884,2.895 z" id="path90" style="fill:#6900a5"></path>
            </g>
            <g transform="translate(-181.67,-211.86)" id="g92">
              <path d="m 238.35,314.09 c 0,1.588 -1.312,2.876 -2.884,2.876 h -25.252 c -1.59,0 -2.88,-1.288 -2.88,-2.876 v -0.767 c 0,-1.575 1.29,-2.876 2.88,-2.876 h 25.252 c 1.572,0 2.884,1.301 2.884,2.876 z" id="path94" style="fill:#6900a5"></path>
            </g>
            <g transform="translate(-181.67,-211.86)" id="g96">
              <path d="m 241.08,323.47 c 0,3.59 -3.248,6.517 -7.201,6.517 h -22.085 c -3.957,0 -7.196,-2.927 -7.196,-6.517 0,-3.586 3.239,-6.511 7.196,-6.511 h 22.085 c 3.953,10e-4 7.201,2.926 7.201,6.511 z" id="path98" style="fill:#6900a5"></path>
            </g>
          </g>
          <path d="m 223.33,-13.276 c 0,-3.3508 -4.6608,-6.1028 -10.353,-6.1028 h -304.19 c -5.6922,0 -10.34,2.7521 -10.34,6.1028 v 4.3601 c 0,3.3508 4.6478,6.0978 10.34,6.0978 h 304.19 c 5.6922,0 10.353,-2.7462 10.353,-6.0978 z" id="path100" style="fill:#6900a5"></path>
          <g transform="translate(-59.409,-10.32)" id="g102" style="fill:#6900a5">
            <path d="m -0.37493,100.5 c 0,3.957 -3.24,7.188 -7.205,7.188 h -11.124 c -3.957,0 -7.21,-3.231 -7.21,-7.188 V 18.439 c 0,-3.959 3.252,-7.199 7.21,-7.199 h 11.124 c 3.966,0 7.205,3.239 7.205,7.199 z" id="path104"></path>
            <g transform="translate(-181.67,-211.86)" id="g106">
              <path d="m 186.77,232.91 c 0,3.579 -3.24,6.519 -7.197,6.519 h -22.077 c -3.97,0 -7.196,-2.94 -7.196,-6.519 0,-3.587 3.226,-6.521 7.196,-6.521 h 22.077 c 3.957,0 7.197,2.934 7.197,6.521 z" id="path108" style="fill:#6900a5"></path>
            </g>
            <g transform="translate(-181.67,-211.86)" id="g110">
              <path d="m 184.04,243.17 c 0,1.584 -1.299,2.879 -2.876,2.879 h -25.256 c -1.585,0 -2.889,-1.295 -2.889,-2.879 v -0.746 c 0,-1.596 1.303,-2.895 2.889,-2.895 h 25.256 c 1.577,0 2.876,1.299 2.876,2.895 z" id="path112" style="fill:#6900a5"></path>
            </g>
            <g transform="translate(-181.67,-211.86)" id="g114">
              <path d="m 184.04,314.09 c 0,1.588 -1.299,2.876 -2.876,2.876 h -25.256 c -1.585,0 -2.889,-1.288 -2.889,-2.876 v -0.767 c 0,-1.575 1.303,-2.876 2.889,-2.876 h 25.256 c 1.577,0 2.876,1.301 2.876,2.876 z" id="path116" style="fill:#6900a5"></path>
            </g>
            <g transform="translate(-181.67,-211.86)" id="g118">
              <path d="m 186.77,323.47 c 0,3.59 -3.24,6.517 -7.197,6.517 h -22.077 c -3.97,0 -7.196,-2.927 -7.196,-6.517 0,-3.586 3.226,-6.511 7.196,-6.511 h 22.077 c 3.957,10e-4 7.197,2.926 7.197,6.511 z" id="path120" style="fill:#6900a5"></path>
            </g>
          </g>
          <g transform="translate(-59.714,-10.32)" id="g122" style="fill:#6900a5">
            <path d="m 53.932,100.5 c 0,3.957 -3.235,7.188 -7.188,7.188 H 35.599 c -3.949,0 -7.188,-3.231 -7.188,-7.188 V 18.439 c 0,-3.959 3.239,-7.199 7.188,-7.199 h 11.145 c 3.953,0 7.188,3.239 7.188,7.199 z" id="path124"></path>
            <g transform="translate(-181.67,-211.86)" id="g126">
              <path d="m 241.08,232.91 c 0,3.579 -3.248,6.519 -7.201,6.519 h -22.085 c -3.957,0 -7.196,-2.94 -7.196,-6.519 0,-3.587 3.239,-6.521 7.196,-6.521 h 22.085 c 3.953,0 7.201,2.934 7.201,6.521 z" id="path128" style="fill:#6900a5"></path>
            </g>
            <g transform="translate(-181.67,-211.86)" id="g130">
              <path d="m 238.35,243.17 c 0,1.584 -1.312,2.879 -2.884,2.879 h -25.252 c -1.59,0 -2.88,-1.295 -2.88,-2.879 v -0.746 c 0,-1.596 1.29,-2.895 2.88,-2.895 h 25.252 c 1.572,0 2.884,1.299 2.884,2.895 z" id="path132" style="fill:#6900a5"></path>
            </g>
            <g transform="translate(-181.67,-211.86)" id="g134">
              <path d="m 238.35,314.09 c 0,1.588 -1.312,2.876 -2.884,2.876 h -25.252 c -1.59,0 -2.88,-1.288 -2.88,-2.876 v -0.767 c 0,-1.575 1.29,-2.876 2.88,-2.876 h 25.252 c 1.572,0 2.884,1.301 2.884,2.876 z" id="path136" style="fill:#6900a5"></path>
            </g>
            <g transform="translate(-181.67,-211.86)" id="g138">
              <path d="m 241.08,323.47 c 0,3.59 -3.248,6.517 -7.201,6.517 h -22.085 c -3.957,0 -7.196,-2.927 -7.196,-6.517 0,-3.586 3.239,-6.511 7.196,-6.511 h 22.085 c 3.953,10e-4 7.201,2.926 7.201,6.511 z" id="path140" style="fill:#6900a5"></path>
            </g>
          </g>
          <path d="m 234.87,158.78 c 0,2.6584 -4.6776,4.8293 -10.406,4.8293 h -327.16 c -5.7158,0 -10.406,-2.1709 -10.406,-4.8293 v -8.7146 c 0,-2.6584 4.6906,-4.8293 10.406,-4.8293 h 327.16 c 5.7288,0 10.406,2.1709 10.406,4.8293 z" id="path142" style="fill:#6900a5"></path>
        </g>
      </g>
    </g>
  </g>
  <g style="display:inline" transform="translate(-157.89022,100.74478)" id="title">
    <text id="text4344" y="-30.542866" x="188.5222" style="font-style:normal;font-variant:normal;font-weight:normal;font-stretch:normal;line-height:0%;font-family:'Terminal Greek 869';-inkscape-font-specification:'Terminal Greek 869, ';letter-spacing:0px;word-spacing:0px;fill:#6900a5;fill-opacity:1;stroke:#f6f6f6;stroke-width:0.93750483;stroke-linecap:butt;stroke-linejoin:miter;stroke-miterlimit:4;stroke-dasharray:none;stroke-opacity:1;paint-order:stroke fill markers" xml:space="preserve">
      <tspan style="font-style:normal;font-variant:normal;font-weight:normal;font-stretch:normal;font-size:30.00015831px;line-height:1.25;font-family:Gabriola;-inkscape-font-specification:Gabriola;fill:#6900a5;fill-opacity:1;stroke:#f6f6f6;stroke-width:0.93750483;stroke-miterlimit:4;stroke-dasharray:none;stroke-opacity:1;paint-order:stroke fill markers" y="-30.542866" x="188.5222" id="tspan4346">Realm</tspan>
    </text>
    <text id="text4348" y="-30.241369" x="259.43652" style="font-style:normal;font-weight:normal;font-size:9.24197483px;line-height:0%;font-family:sans-serif;letter-spacing:0px;word-spacing:0px;fill:#6900a5;fill-opacity:1;stroke:#f6f6f6;stroke-width:0.93750483;stroke-linecap:butt;stroke-linejoin:miter;stroke-miterlimit:4;stroke-dasharray:none;stroke-opacity:1;paint-order:stroke fill markers" xml:space="preserve">
      <tspan style="font-style:normal;font-variant:normal;font-weight:bold;font-stretch:normal;font-size:7.70168638px;line-height:1.25;font-family:Arial;-inkscape-font-specification:Arial;fill:#6900a5;fill-opacity:1;stroke:#f6f6f6;stroke-width:0.93750483;stroke-miterlimit:4;stroke-dasharray:none;stroke-opacity:1;paint-order:stroke fill markers" y="-30.241369" x="259.43652" id="tspan4350">OF THE</tspan>
    </text>
    <text id="text4344-8" y="-30.542866" x="300.96762" style="font-style:normal;font-variant:normal;font-weight:normal;font-stretch:normal;line-height:0%;font-family:'Terminal Greek 869';-inkscape-font-specification:'Terminal Greek 869, ';letter-spacing:0px;word-spacing:0px;fill:#6900a5;fill-opacity:1;stroke:#f6f6f6;stroke-width:0.93750483;stroke-linecap:butt;stroke-linejoin:miter;stroke-miterlimit:4;stroke-dasharray:none;stroke-opacity:1;paint-order:stroke fill markers" xml:space="preserve">
      <tspan style="font-style:normal;font-variant:normal;font-weight:normal;font-stretch:normal;font-size:30.00015831px;line-height:1.25;font-family:Gabriola;-inkscape-font-specification:Gabriola;fill:#6900a5;fill-opacity:1;stroke:#f6f6f6;stroke-width:0.93750483;stroke-miterlimit:4;stroke-dasharray:none;stroke-opacity:1;paint-order:stroke fill markers" y="-30.542866" x="300.96762" id="tspan4346-7">Winds</tspan>
    </text>
  </g>
  <g id="subtitle">
    <text xml:space="preserve" style="font-style:normal;font-weight:normal;font-size:9.24197483px;line-height:0%;font-family:sans-serif;letter-spacing:0px;word-spacing:0px;display:inline;fill:#6900a5;fill-opacity:1;stroke:#f6f6f6;stroke-width:0.93750483;stroke-linecap:butt;stroke-linejoin:miter;stroke-miterlimit:4;stroke-dasharray:none;stroke-opacity:1;paint-order:stroke fill markers" x="57.585743" y="84.565979" id="text6225">
      <tspan id="tspan6223" x="57.585743" y="84.565979" style="font-style:normal;font-variant:normal;font-weight:normal;font-stretch:normal;font-size:10.00005054px;line-height:1.25;font-family:Gabriola;-inkscape-font-specification:Gabriola;fill:#6900a5;fill-opacity:1;stroke:#f6f6f6;stroke-width:0.93750483;stroke-miterlimit:4;stroke-dasharray:none;stroke-opacity:1;paint-order:stroke fill markers">Fly like an eagle. Let the wind carry me.</tspan>
    </text>
  </g>
</svg>